…
In the code below we use the `g20_codes` object to filter to the appropriate countries. As the education levels in the education specific population data sets in the Wittgenstein Centre Human Capital data explorer vary by country and year we can use the `edu_group_sum()` function to ensure all countries have population totals by six education groups. Finally, the data are summed over age and sex to provide single population counts for each country, year and education group. 

```r
d0 <- past_epop %>%
  filter(country_code %in% g20_codes) %>%
  edu_group_sum(n = 6) %>%
  group_by(name, year, education) %>%
  summarise(epop = sum(epop))
d0
```

```
## # A tibble: 1,995 x 4
## # Groups:   name, year [285]
##    name    year education           epop
##    <fct>  <dbl> <fct>              <dbl>
##  1 Canada  1950 Under 15           4077 
##  2 Canada  1950 No Education        106.
##  3 Canada  1950 Incomplete Primary 1528.
##  4 Canada  1950 Primary            3296.
##  5 Canada  1950 Lower Secondary    2382.
##  6 Canada  1950 Upper Secondary    1368.
##  7 Canada  1950 Post Secondary      980.
##  8 Canada  1955 Under 15           5053.
##  9 Canada  1955 No Education        110.
## 10 Canada  1955 Incomplete Primary 1450 
## # ... with 1,985 more rows
```
…
We update the `d0` data frame to take the ordering of the countries saved in object `n`. We also shorten the full name of the United Kingdom.


```r
d0 <- d0 %>%
  mutate(name = factor(name, levels = n)) %>%
  arrange(name) %>%
  mutate(name = countryname(sourcevar = name),
         name = fct_inorder(name))
d0
```

```
## # A tibble: 1,995 x 4
## # Groups:   name, year [285]
##    name    year education            epop
##    <fct>  <dbl> <fct>               <dbl>
##  1 Mexico  1950 Under 15           11893.
##  2 Mexico  1950 No Education        7632.
##  3 Mexico  1950 Incomplete Primary  5228.
##  4 Mexico  1950 Primary             2301.
##  5 Mexico  1950 Lower Secondary      690.
##  6 Mexico  1950 Upper Secondary      184 
##  7 Mexico  1950 Post Secondary        83 
##  8 Mexico  1955 Under 15           14544.
##  9 Mexico  1955 No Education        8005.
## 10 Mexico  1955 Incomplete Primary  5943 
## # ... with 1,985 more rows
```
…
